C:\EPAM\Automation\TestNg\src\main\java\com\epam\controller\Minesweeper.java
C:\EPAM\Automation\TestNg\src\main\java\com\epam\controller\interfaces\PlateauFinder.java
C:\EPAM\Automation\TestNg\src\main\java\com\epam\controller\PlateauFinderImpl.java
